{
    "comment": "Latest release of EmulationStation Desktop Edition (ES-DE)",
    "website": "https://es-de.org/",
    "repository": "https://gitlab.com/es-de/",
    "stable": {
        "version": "2.1.1",
        "release": "36",
        "date": "2023-07-16",
        "packages": [
            {
                "name": "WindowsPortable",
                "filename": "EmulationStation-DE-2.1.1-x64_Portable.zip",
                "url": "https://gitlab.com/es-de/emulationstation-de/-/package_files/85557602/download",
                "md5": "573a704447c9e8b688f2b54a50065577",
                "message": ""
            },
            {
                "name": "WindowsInstaller",
                "filename": "EmulationStation-DE-2.1.1-x64.exe",
                "url": "https://gitlab.com/es-de/emulationstation-de/-/package_files/85557598/download",
                "md5": "7db30b06b32f81a95caeaf76a86012cb",
                "message": ""
            },
            {
                "name": "macOSApple",
                "filename": "EmulationStation-DE-2.1.1-arm64.dmg",
                "url": "https://gitlab.com/es-de/emulationstation-de/-/package_files/85557587/download",
                "md5": "c73110a9478ebb81016298b0e728bdf0",
                "message": ""
            },
            {
                "name": "macOSIntel",
                "filename": "EmulationStation-DE-2.1.1-x64.dmg",
                "url": "https://gitlab.com/es-de/emulationstation-de/-/package_files/85557596/download",
                "md5": "f88af1267a4e2d5118cf574611b53afa",
                "message": ""
            },
            {
                "name": "LinuxAppImage",
                "filename": "EmulationStation-DE-x64.AppImage",
                "url": "https://gitlab.com/es-de/emulationstation-de/-/package_files/85557605/download",
                "md5": "c78b4b996eed4130c13e2db2a73ba2c6",
                "message": ""
            },
            {
                "name": "LinuxSteamDeckAppImage",
                "filename": "EmulationStation-DE-x64_SteamDeck.AppImage",
                "url": "https://gitlab.com/es-de/emulationstation-de/-/package_files/85557609/download",
                "md5": "01751e8e816bf04cb7f37c0daa98a7e8",
                "message": ""
            }
        ]
    },
    "prerelease": {
        "comment": "The fields below will be blank if there is no prerelease available",
        "version": "",
        "release": "",
        "date": "",
        "packages": [
            {
                "name": "WindowsPortable",
                "filename": "",
                "url": "",
                "md5": "",
                "message": ""
            },
            {
                "name": "WindowsInstaller",
                "filename": "",
                "url": "",
                "md5": "",
                "message": ""
            },
            {
                "name": "macOSApple",
                "filename": "",
                "url": "",
                "md5": "",
                "message": ""
            },
            {
                "name": "macOSIntel",
                "filename": "",
                "url": "",
                "md5": "",
                "message": ""
            },
            {
                "name": "LinuxAppImage",
                "filename": "",
                "url": "",
                "md5": "",
                "message": ""
            },
            {
                "name": "LinuxSteamDeckAppImage",
                "filename": "",
                "url": "",
                "md5": "",
                "message": ""
            }
        ]
    }
}